FPU/icverilog/dump.vcd
$date
	Sat Nov 27 01:11:07 2021
$end
$version
	Icarus Verilog
$end
$timescale
	1ps
$end
$scope module FPALU_tb $end
$var wire 1 ! dout_uni_y_sgn $end
$var wire 22 " dout_uni_y_man_dn [21:0] $end
$var wire 6 # dout_uni_y_exp [5:0] $end
$var wire 1 $ din_uni_b_sgn $end
$var wire 22 % din_uni_b_man_dn [21:0] $end
$var wire 6 & din_uni_b_exp [5:0] $end
$var wire 1 ' din_uni_a_sgn $end
$var wire 22 ( din_uni_a_man_dn [21:0] $end
$var wire 6 ) din_uni_a_exp [5:0] $end
$var reg 32 * a [31:0] $end
$var reg 1 + add_muln $end
$var reg 32 , b [31:0] $end
$var reg 1 - clk $end
$var reg 1 . rst_n $end
$scope module dut $end
$var wire 1 + add_muln $end
$var wire 1 - clk $end
$var wire 22 / din_AL_mana [21:0] $end
$var wire 22 0 din_AL_manb [21:0] $end
$var wire 6 1 din_uni_a_exp [5:0] $end
$var wire 22 2 din_uni_a_man_dn [21:0] $end
$var wire 1 ' din_uni_a_sgn $end
$var wire 6 3 din_uni_b_exp [5:0] $end
$var wire 22 4 din_uni_b_man_dn [21:0] $end
$var wire 1 $ din_uni_b_sgn $end
$var wire 1 ! dout_uni_y_sgn $end
$var wire 1 . rst_n $end
$var wire 1 5 s1_addsubn $end
$var wire 1 6 s1_ea_gte_eb $end
$var wire 1 7 s2_ea_lt_eb $end
$var wire 1 8 s2_lhs_is_zero $end
$var wire 1 9 s5_ea_lt_eb $end
$var wire 6 : s5_expadj_skip [5:0] $end
$var wire 1 ; s5_expadj_ovflow $end
$var wire 7 < s5_expadj_mul [6:0] $end
$var wire 7 = s5_expadj_final1 [6:0] $end
$var wire 7 > s5_expadj_add [6:0] $end
$var wire 32 ? s5_bsl_out [31:0] $end
$var wire 32 @ s4_lzdi [31:0] $end
$var wire 5 A s4_lzd [4:0] $end
$var wire 23 B s3_mmux_y [22:0] $end
$var wire 23 C s3_alu_out [22:0] $end
$var wire 1 D s2_s2 $end
$var wire 2 E s2_opcode_mod [1:0] $end
$var wire 23 F s2_mmux3_rhs_addsub [22:0] $end
$var wire 23 G s2_mmux3_lhs_addsub [22:0] $end
$var wire 22 H s2_mmux2_rhs [21:0] $end
$var wire 22 I s2_mmux2_lhs [21:0] $end
$var wire 22 J s2_bsr_out_gated [21:0] $end
$var wire 32 K s2_bsr_out [31:0] $end
$var wire 22 L s1_mmux_rhs [21:0] $end
$var wire 22 M s1_mmux_lhs [21:0] $end
$var wire 1 N s1_ml_ea_is_denorm $end
$var wire 6 O s1_ea_sub_eb_abs [5:0] $end
$var wire 7 P s1_ea_sub_eb [6:0] $end
$var wire 1 Q s1_ea_lt_eb $end
$var wire 14 R s1_br4enc_input [13:0] $end
$var wire 6 S s1_br4_s [5:0] $end
$var wire 72 T s1_br4_pp [71:0] $end
$var wire 12 U pp5 [11:0] $end
$var wire 12 V pp4 [11:0] $end
$var wire 12 W pp3 [11:0] $end
$var wire 12 X pp2 [11:0] $end
$var wire 12 Y pp1 [11:0] $end
$var wire 12 Z pp0 [11:0] $end
$var wire 22 [ dout_uni_y_man_dn [21:0] $end
$var wire 6 \ dout_uni_y_exp [5:0] $end
$var wire 6 ] din_ML_expb [5:0] $end
$var wire 6 ^ din_ML_expa [5:0] $end
$var reg 11 _ din_ML_mana [10:0] $end
$var reg 11 ` din_ML_manb [10:0] $end
$var reg 2 a s1_opcode [1:0] $end
$var reg 1 b s2_addsubn_r $end
$var reg 72 c s2_br4_pp_r [71:0] $end
$var reg 6 d s2_br4_s_r [5:0] $end
$var reg 1 e s2_ea_gte_eb_r $end
$var reg 6 f s2_ea_r [5:0] $end
$var reg 6 g s2_ea_sub_eb_abs_r [5:0] $end
$var reg 6 h s2_eb_r [5:0] $end
$var reg 6 i s2_expa_r [5:0] $end
$var reg 22 j s2_expb_r [21:0] $end
$var reg 22 k s2_mmux_lhs_r [21:0] $end
$var reg 22 l s2_mmux_rhs_r [21:0] $end
$var reg 2 m s2_opcode_r [1:0] $end
$var reg 19 n s2_ps0 [18:0] $end
$var reg 16 o s2_ps1 [15:0] $end
$var reg 1 p s3_addsubn_r $end
$var reg 1 q s3_alumux_cin $end
$var reg 23 r s3_alumux_lhs [22:0] $end
$var reg 23 s s3_alumux_rhs [22:0] $end
$var reg 1 t s3_ea_gte_eb_r $end
$var reg 6 u s3_ea_r [5:0] $end
$var reg 6 v s3_eb_r [5:0] $end
$var reg 6 w s3_expa_r [5:0] $end
$var reg 22 x s3_expb_r [21:0] $end
$var reg 23 y s3_lhs_r [22:0] $end
$var reg 2 z s3_opcode_r [1:0] $end
$var reg 19 { s3_ps0_r [18:0] $end
$var reg 16 | s3_ps1_r [15:0] $end
$var reg 23 } s3_rhs_r [22:0] $end
$var reg 1 ~ s3_s2_r $end
$var reg 1 !" s4_ea_gte_eb_r $end
$var reg 6 "" s4_ea_r [5:0] $end
$var reg 22 #" s4_eb_r [21:0] $end
$var reg 23 $" s4_many_r [22:0] $end
$var reg 2 %" s4_opcode_r [1:0] $end
$var reg 1 &" s5_ea_gte_eb_r $end
$var reg 6 '" s5_ea_r [5:0] $end
$var reg 6 (" s5_eb_r [5:0] $end
$var reg 7 )" s5_expadj_final [6:0] $end
$var reg 5 *" s5_lzd_r [4:0] $end
$var reg 23 +" s5_many_r [22:0] $end
$var reg 2 ," s5_opcode_r [1:0] $end
$var reg 5 -" s5_shiftbias [4:0] $end
$var real 1 ." a_real $end
$var real 1 /" a_real_s2 $end
$var real 1 0" a_real_s3 $end
$var real 1 1" a_real_s4 $end
$var real 1 2" a_real_s5 $end
$var real 1 3" b_real_dn $end
$var real 1 4" b_real_s2 $end
$var real 1 5" b_real_s3 $end
$var real 1 6" b_real_s4 $end
$var real 1 7" b_real_s5 $end
$var integer 32 8" many_expected_ml [31:0] $end
$var real 1 9" mul_ik1 $end
$var real 1 :" mul_k1 $end
$var real 1 ;" y_expected_ad $end
$var real 1 <" y_expected_ml $end
$var real 1 =" y_real_dn $end
$scope begin gen_br4enc[0] $end
$scope module s1_u_br4ppgen $end
$var wire 11 >" a [10:0] $end
$var wire 3 ?" br4 [2:0] $end
$var wire 1 @" s $end
$var reg 12 A" o [11:0] $end
$upscope $end
$upscope $end
$scope begin gen_br4enc[1] $end
$scope module s1_u_br4ppgen $end
$var wire 11 B" a [10:0] $end
$var wire 3 C" br4 [2:0] $end
$var wire 1 D" s $end
$var reg 12 E" o [11:0] $end
$upscope $end
$upscope $end
$scope begin gen_br4enc[2] $end
$scope module s1_u_br4ppgen $end
$var wire 11 F" a [10:0] $end
$var wire 3 G" br4 [2:0] $end
$var wire 1 H" s $end
$var reg 12 I" o [11:0] $end
$upscope $end
$upscope $end
$scope begin gen_br4enc[3] $end
$scope module s1_u_br4ppgen $end
$var wire 11 J" a [10:0] $end
$var wire 3 K" br4 [2:0] $end
$var wire 1 L" s $end
$var reg 12 M" o [11:0] $end
$upscope $end
$upscope $end
$scope begin gen_br4enc[4] $end
$scope module s1_u_br4ppgen $end
$var wire 11 N" a [10:0] $end
$var wire 3 O" br4 [2:0] $end
$var wire 1 P" s $end
$var reg 12 Q" o [11:0] $end
$upscope $end
$upscope $end
$scope begin gen_br4enc[5] $end
$scope module s1_u_br4ppgen $end
$var wire 11 R" a [10:0] $end
$var wire 3 S" br4 [2:0] $end
$var wire 1 T" s $end
$var reg 12 U" o [11:0] $end
$upscope $end
$upscope $end
$scope module s1_u_manxchg $end
$var wire 22 V" ia [21:0] $end
$var wire 22 W" ib [21:0] $end
$var wire 1 Q xchg $end
$var wire 22 X" ob [21:0] $end
$var wire 22 Y" oa [21:0] $end
$upscope $end
$scope module s2_u_bsr $end
$var wire 32 Z" din [31:0] $end
$var wire 32 [" dout [31:0] $end
$var wire 1 \" filler $end
$var wire 5 ]" s [4:0] $end
$scope begin gen_brshift[0] $end
$upscope $end
$scope begin gen_brshift[1] $end
$upscope $end
$scope begin gen_brshift[2] $end
$upscope $end
$scope begin gen_brshift[3] $end
$upscope $end
$scope begin gen_brshift[4] $end
$upscope $end
$upscope $end
$scope module s2_u_manxchg $end
$var wire 22 ^" ia [21:0] $end
$var wire 22 _" ib [21:0] $end
$var wire 1 7 xchg $end
$var wire 22 `" ob [21:0] $end
$var wire 22 a" oa [21:0] $end
$upscope $end
$scope module s3_s4_u_cla $end
$var wire 1 q carry_in $end
$var wire 23 b" in1 [22:0] $end
$var wire 23 c" in2 [22:0] $end
$var wire 23 d" sum [22:0] $end
$var wire 23 e" pro [22:0] $end
$var wire 23 f" gen [22:0] $end
$var wire 24 g" carry_tmp [23:0] $end
$var wire 1 h" carry_out $end
$scope begin carry_generator[0] $end
$upscope $end
$scope begin carry_generator[1] $end
$upscope $end
$scope begin carry_generator[2] $end
$upscope $end
$scope begin carry_generator[3] $end
$upscope $end
$scope begin carry_generator[4] $end
$upscope $end
$scope begin carry_generator[5] $end
$upscope $end
$scope begin carry_generator[6] $end
$upscope $end
$scope begin carry_generator[7] $end
$upscope $end
$scope begin carry_generator[8] $end
$upscope $end
$scope begin carry_generator[9] $end
$upscope $end
$scope begin carry_generator[10] $end
$upscope $end
$scope begin carry_generator[11] $end
$upscope $end
$scope begin carry_generator[12] $end
$upscope $end
$scope begin carry_generator[13] $end
$upscope $end
$scope begin carry_generator[14] $end
$upscope $end
$scope begin carry_generator[15] $end
$upscope $end
$scope begin carry_generator[16] $end
$upscope $end
$scope begin carry_generator[17] $end
$upscope $end
$scope begin carry_generator[18] $end
$upscope $end
$scope begin carry_generator[19] $end
$upscope $end
$scope begin carry_generator[20] $end
$upscope $end
$scope begin carry_generator[21] $end
$upscope $end
$scope begin carry_generator[22] $end
$upscope $end
$scope begin sum_without_carry[0] $end
$upscope $end
$scope begin sum_without_carry[1] $end
$upscope $end
$scope begin sum_without_carry[2] $end
$upscope $end
$scope begin sum_without_carry[3] $end
$upscope $end
$scope begin sum_without_carry[4] $end
$upscope $end
$scope begin sum_without_carry[5] $end
$upscope $end
$scope begin sum_without_carry[6] $end
$upscope $end
$scope begin sum_without_carry[7] $end
$upscope $end
$scope begin sum_without_carry[8] $end
$upscope $end
$scope begin sum_without_carry[9] $end
$upscope $end
$scope begin sum_without_carry[10] $end
$upscope $end
$scope begin sum_without_carry[11] $end
$upscope $end
$scope begin sum_without_carry[12] $end
$upscope $end
$scope begin sum_without_carry[13] $end
$upscope $end
$scope begin sum_without_carry[14] $end
$upscope $end
$scope begin sum_without_carry[15] $end
$upscope $end
$scope begin sum_without_carry[16] $end
$upscope $end
$scope begin sum_without_carry[17] $end
$upscope $end
$scope begin sum_without_carry[18] $end
$upscope $end
$scope begin sum_without_carry[19] $end
$upscope $end
$scope begin sum_without_carry[20] $end
$upscope $end
$scope begin sum_without_carry[21] $end
$upscope $end
$scope begin sum_without_carry[22] $end
$upscope $end
$upscope $end
$scope module s4_u_lzd $end
$var wire 32 i" in [31:0] $end
$var wire 5 j" out [4:0] $end
$scope begin gen_recurse $end
$var wire 16 k" lhs [15:0] $end
$var wire 16 l" rhs [15:0] $end
$var wire 1 m" left_empty $end
$var wire 4 n" half_count [3:0] $end
$scope module inner $end
$var wire 16 o" in [15:0] $end
$var wire 4 p" out [3:0] $end
$scope begin gen_recurse $end
$var wire 8 q" lhs [7:0] $end
$var wire 8 r" rhs [7:0] $end
$var wire 1 s" left_empty $end
$var wire 3 t" half_count [2:0] $end
$scope module inner $end
$var wire 8 u" in [7:0] $end
$var wire 3 v" out [2:0] $end
$scope begin gen_recurse $end
$var wire 4 w" lhs [3:0] $end
$var wire 4 x" rhs [3:0] $end
$var wire 1 y" left_empty $end
$var wire 2 z" half_count [1:0] $end
$scope module inner $end
$var wire 4 {" in [3:0] $end
$var wire 2 |" out [1:0] $end
$scope begin gen_recurse $end
$var wire 2 }" lhs [1:0] $end
$var wire 2 ~" rhs [1:0] $end
$var wire 1 !# left_empty $end
$var wire 1 "# half_count $end
$scope module inner $end
$var wire 2 ## in [1:0] $end
$var wire 1 "# out $end
$scope begin gen_terminal $end
$upscope $end
$upscope $end
$upscope $end
$upscope $end
$upscope $end
$upscope $end
$upscope $end
$upscope $end
$upscope $end
$upscope $end
$scope module s5_u_bsl $end
$var wire 32 $# din [31:0] $end
$var wire 32 %# dout [31:0] $end
$var wire 1 &# filler $end
$var wire 5 '# s [4:0] $end
$scope begin gen_blshift[0] $end
$upscope $end
$scope begin gen_blshift[1] $end
$upscope $end
$scope begin gen_blshift[2] $end
$upscope $end
$scope begin gen_blshift[3] $end
$upscope $end
$scope begin gen_blshift[4] $end
$upscope $end
$upscope $end
$upscope $end
$upscope $end
$scope module booth_enc_r4 $end
$var wire 3 (# bin [2:0] $end
$var reg 3 )# br4_out [2:0] $end
$upscope $end
$enddefinitions $end
#1000
$dumpvars
bx )#
bz (#
bx '#
0&#
bx000000000 %#
bx000000000 $#
bx ##
x"#
x!#
bx ~"
bx }"
bx |"
bx {"
bx z"
xy"
bx x"
bx w"
bx v"
bx u"
bx t"
xs"
bx r"
bx q"
bx p"
bx o"
bx n"
xm"
bx000000000 l"
bx k"
bx j"
bx000000000 i"
xh"
bx g"
bx f"
bx e"
bx d"
bx c"
bx b"
bx a"
bx `"
bx _"
bx ^"
bx ]"
0\"
bx ["
bx0000000000 Z"
b101010011010100100100 Y"
b10010101111010000001 X"
b10010101111010000001 W"
b101010011010100100100 V"
b101001001000 U"
0T"
b11 S"
b10100100100 R"
b101011011011 Q"
1P"
b101 O"
b10100100100 N"
b10110110111 M"
1L"
b100 K"
b10100100100 J"
b0 I"
0H"
b0 G"
b10100100100 F"
b0 E"
0D"
b0 C"
b10100100100 B"
b10100100100 A"
0@"
b10 ?"
b10100100100 >"
r0 ="
r0 <"
r0 ;"
rnan :"
rnan 9"
b1000010110111100100100 8"
r0 7"
r0 6"
r0 5"
r0 4"
r0.0001984834671020508 3"
r0 2"
r0 1"
r0 0"
r0 /"
r0.010040283203125 ."
bx -"
bx ,"
bx +"
bx *"
bx )"
bx ("
bx '"
x&"
bx %"
bx $"
bx #"
bx ""
x!"
x~
bx }
bx |
bx {
bx z
bx y
bx x
bx w
bx v
bx u
xt
bx s
bx r
xq
xp
bx o
bx n
bx m
bx l
bx k
bx j
bx i
bx h
bx g
bx f
xe
bx d
bx c
xb
b10 a
b11010000001 `
b10100100100 _
b1000 ^
b10 ]
bx \
bx [
bx Z
bx Y
bx X
bx W
bx V
bx U
b101001001000101011011011010110110111000000000000000000000000010100100100 T
b11000 S
b110100000010 R
0Q
b110 P
b110 O
0N
b101010011010100100100 M
b10010101111010000001 L
bx K
bx J
bx I
bx H
b0xxxxxxxxxxxxxxxxxxxxxx G
bx F
bx E
xD
bx C
bx B
bx A
bx000000000 @
bx000000000 ?
b0xxxxxx >
bx =
bx <
x;
b0 :
x9
x8
x7
16
05
b10010101111010000001 4
b10 3
b101010011010100100100 2
b1000 1
b10010101111010000001 0
b101010011010100100100 /
1.
0-
b11000000100010010101111010000001 ,
0+
b10010000101010011010100100100 *
b1000 )
b101010011010100100100 (
1'
b10 &
b10010101111010000001 %
0$
bx #
bx "
z!
$end
#2000
b10010101111010 H
b10010101111010 `"
b10010101111010 J
b10010101111010 _"
b100101011110100000010000 K
b100101011110100000010000 ["
b10 E
b11111111101101010000101 F
b101010011010100100100 G
08
b101010011010100100100 I
b101010011010100100100 a"
07
b110 ]"
b111010110101000 o
b1000000010100100100 n
0D
b10100100100 Z
b0 Y
b0 X
b10110110111 W
b101011011011 V
b101001001000 U
b10 j
b1000 i
b10 m
0b
b100101011110100000010000000000 Z"
b10010101111010000001 l
b101010011010100100100 k
b101010011010100100100 ^"
1e
b110 g
b11000 d
b101001001000101011011011010110110111000000000000000000000000010100100100 c
b10 h
b1000 f
b0xxxxxxxxxxxxxxxxxxxxxx y
r0.0001984834671020508 4"
r0.010040283203125 /"
1-
#3000
b1011 O
0L"
1H"
b10101 S
1@"
b100 O"
b11 K"
b100 G"
b1 C"
b110 ?"
b100111110110 A"
b11000001001 E"
b1111101101 I"
b110000010010 M"
b1111101101 Q"
b110000010010001111101101110000010010001111101101011000001001100111110110 T
b110000010010 U"
b1001101000101101111011 8"
r0.006237030029296875 3"
r12.0703125 ."
b111 ]
b1100000101011001100011 L
b1100000101011001100011 X"
b10010 ^
b1001101011000001001 M
b1001101011000001001 Y"
b110011000110 R
b11001100011 `
b11000001001 _
b11000001001 >"
b11000001001 B"
b11000001001 F"
b11000001001 J"
b11000001001 N"
b11000001001 R"
1$
b111 &
b111 3
b1100000101011001100011 0
b1100000101011001100011 %
b1100000101011001100011 4
b1100000101011001100011 W"
0'
b1011 P
b10010 )
b10010 1
b1001101011000001001 /
b1001101011000001001 (
b1001101011000001001 2
b1001101011000001001 V"
b10110001111100000101011001100011 ,
b10000100100001001101011000001001 *
0-
#4000
b11111111111100111110101 F
b11000001010 H
b11000001010 `"
b11000001010 J
b11000001010 _"
0h"
b110000010101100110001 K
b110000010101100110001 ["
b1000010110111100100100 B
b1000010110111100100100 C
b1000010110111100100100 d"
b1000000000000000000 f"
b111010110111100100100 e"
b1001101011000001001 G
b1110000000000000000000 g"
0q
b111010110101000000000 s
b111010110101000000000 c"
b1000000010100100100 r
b1000000010100100100 b"
b1000110011101010 o
b110101000011101011 n
1D
b100111110110 Z
b11000001001 Y
b1111101101 X
b110000010010 W
b1111101101 V
b110000010010 U
b1001101011000001001 I
b1001101011000001001 a"
b1011 ]"
0~
b111010110101000 |
b1000000010100100100 {
1t
b10 v
b1000 u
0p
b11111111101101010000101 }
b101010011010100100100 y
b10 x
b1000 w
b10 z
b10101 d
b110000010010001111101101110000010010001111101101011000001001100111110110 c
b111 h
b10010 f
b11000001010110011000110000000000 Z"
b1100000101011001100011 l
b1001101011000001001 k
b1001101011000001001 ^"
b1011 g
b111 j
b10010 i
r0.0001984834671020508 5"
r0.010040283203125 0"
r0.006237030029296875 4"
r12.0703125 /"
1-
#5000
b1 O
0P"
1L"
0H"
1D"
b1010 S
0@"
15
06
b0 S"
b11 O"
b100 K"
b1 G"
b110 C"
b10 ?"
b11100001101 A"
b100011110010 E"
b11100001101 I"
b111100101 M"
b111000011010 Q"
b111000011010000111100101011100001101100011110010011100001101 T
b0 U"
b10101110111100101001 8"
r1588 3"
r3610 ."
b11011 ]
1Q
b1110010111101100001101 L
b1110010111101100001101 X"
b11010 ^
b111111001100110001101 M
b111111001100110001101 Y"
b1100011010 R
b110001101 `
b11100001101 _
b11100001101 >"
b11100001101 B"
b11100001101 F"
b11100001101 J"
b11100001101 N"
b11100001101 R"
0$
b11011 &
b11011 3
b111111001100110001101 0
b111111001100110001101 %
b111111001100110001101 4
b111111001100110001101 W"
b1111111 P
b11010 )
b11010 1
b1110010111101100001101 /
b1110010111101100001101 (
b1110010111101100001101 2
b1110010111101100001101 V"
b1000110110111111001100110001101 ,
b110101110010111101100001101 *
0-
#6000
1"#
b111001011110110000110 J
b111001011110110000110 _"
b1 ##
b1 z"
b1 |"
0!#
b1 }"
b0 ~"
b1110010111101100001101000000000 K
b1110010111101100001101000000000 ["
b100 {"
b1101110000100000000 g"
b1001101000101101111011 B
b1 t"
b1 v"
0y"
b100 w"
b10 x"
b1001101000101101111011 C
b1001101000101101111011 d"
b1000010 u"
b110001000010000000 f"
b1000110111101011111011 e"
b1 n"
b1 p"
0s"
b1000010 q"
b11011110 r"
b111001011110110000110 G
b111111001100110001101 H
b111111001100110001101 `"
b100001011011110 o"
b111111001100110001101 F
b111001011110110000110 I
b111001011110110000110 a"
17
b1 ]"
b1101001001110 o
b1000101101110101001 n
0D
b11100001101 Z
b100011110010 Y
b11100001101 X
b111100101 W
b111000011010 V
b0 U
b1000110011101010010000 s
b1000110011101010010000 c"
b110101000011101011 r
b110101000011101011 b"
b1 A
b1 j"
0m"
b100001011011110 k"
b100100000000000 l"
b11011 j
b11010 i
1b
b11100101111011000011010000000000 Z"
b1110010111101100001101 l
b111111001100110001101 k
b111111001100110001101 ^"
0e
b1 g
b1010 d
b111000011010000111100101011100001101100011110010011100001101 c
b11011 h
b11010 f
b111 x
b10010 w
b11111111111100111110101 }
b1001101011000001001 y
b111 v
b10010 u
1~
b1000110011101010 |
b110101000011101011 {
1!"
b10 #"
b1000 ""
b10 %"
b1000010110111100100100000000000 @
b1000010110111100100100000000000 i"
b1000010110111100100100 $"
r0.0001984834671020508 6"
r0.010040283203125 1"
r0.006237030029296875 5"
r12.0703125 0"
r1588 4"
r3610 /"
1-
#7000
b11001 O
1P"
0L"
0D"
b10001 S
1@"
05
b1 S"
b100 O"
b0 K"
b10 G"
b1 C"
b100 ?"
b11100110101 A"
b10001100101 E"
b10001100101 I"
b0 M"
b11100110101 Q"
b10001100101011100110101000000000000010001100101010001100101011100110101 T
b10001100101 U"
b10010001100100011010 8"
r0.0002527236938476562 3"
r0.06866455078125 ."
b100 ]
b1101110101001000010010 M
b1101110101001000010010 Y"
b1011 ^
b101000010001100101 L
b101000010001100101 X"
b10000100100 R
b1000010010 `
b10001100101 _
b10001100101 >"
b10001100101 B"
b10001100101 F"
b10001100101 J"
b10001100101 N"
b10001100101 R"
b100100 &
b100100 3
b1101110101001000010010 0
b1101110101001000010010 %
b1101110101001000010010 4
b1101110101001000010010 W"
1'
b1100111 P
b1011 )
b1011 1
b101000010001100101 /
b101000010001100101 (
b101000010001100101 2
b101000010001100101 V"
b10001001001101110101001000010010 ,
b10110010110000101000010001100101 *
0-
#8000
r1.992830220842734e-06 ="
b1000010110111100100100 "
b1000010110111100100100 [
b10000101101111001001000000000000 ?
b10000101101111001001000000000000 %#
b0 G
b0 I
b0 a"
b0 J
b0 _"
b1101 x"
b10000010011100000000 g"
b10101110111100101001 B
0;
b1101 #
b1101 \
b1001101 u"
b10101110111100101001 C
b10101110111100101001 d"
b101 K
b101 ["
b1101 =
b1001101 q"
b10110 r"
b1000001001110000000 f"
b1101101101110101001 e"
b1101110 )"
b100110100010110 o"
09
b1101111 <
b1000 >
b1 -"
b1 '#
b100110100010110 k"
b1111011000000000 l"
b1101001001110000000 s
b1101001001110000000 c"
b1000101101110101001 r
b1000101101110101001 b"
b1001100101000 o
b1000100111100011010 n
b11100110101 Z
b10001100101 Y
b10001100101 X
b0 W
b11100110101 V
b10001100101 U
b10010001010110111101101 F
b1101110101001000010010 H
b1101110101001000010010 `"
b11001 ]"
1&"
b10 ("
b1000 '"
b1 *"
b1000010110111100100100000000000 $#
b1000010110111100100100 +"
b10 ,"
b111 #"
b10010 ""
b1001101000101101111011000000000 @
b1001101000101101111011000000000 i"
b1001101000101101111011 $"
0~
b1101001001110 |
b1000101101110101001 {
0t
b11011 v
b11010 u
1p
b111111001100110001101 }
b111001011110110000110 y
b11011 x
b11010 w
b10001 d
b10001100101011100110101000000000000010001100101010001100101011100110101 c
b100100 h
b1011 f
0b
b1010000100011001010000000000 Z"
b101000010001100101 l
b1101110101001000010010 k
b1101110101001000010010 ^"
b11001 g
b100 j
b1011 i
r1 9"
r1 :"
r0.01023876667022705 ;"
r1.992830220842734e-06 <"
r0.0001984834671020508 7"
r0.010040283203125 2"
r0.006237030029296875 6"
r12.0703125 1"
r1588 5"
r3610 0"
r0.0002527236938476562 4"
r0.06866455078125 /"
1-
#9000
b11000 O
0P"
1D"
b10 S
0@"
15
b10 S"
b10 O"
b1 G"
b110 C"
b10 ?"
b11100000001 A"
b100011111110 E"
b11100000001 I"
b0 M"
b11100000001 Q"
b11100000001011100000001000000000000011100000001100011111110011100000001 T
b11100000001 U"
b1000110110000000001101 8"
r5172 3"
r0.0004274845123291016 ."
b11011 ]
b101111100110100001101 M
b101111100110100001101 Y"
b11 ^
b1100111110001100000001 L
b1100111110001100000001 X"
b101000011010 R
b10100001101 `
b11100000001 _
b11100000001 >"
b11100000001 B"
b11100000001 F"
b11100000001 J"
b11100000001 N"
b11100000001 R"
b11011 &
b11011 3
b101111100110100001101 0
b101111100110100001101 %
b101111100110100001101 4
b101111100110100001101 W"
0'
b1101000 P
b11 )
b11 1
b1100111110001100000001 /
b1100111110001100000001 (
b1100111110001100000001 2
b1100111110001100000001 V"
b110110101111100110100001101 ,
b111100111110001100000001 *
0-
#10000
b11001111 K
b11001111 ["
b1001101000101101111011 "
b1001101000101101111011 [
b10011010001011011110110000000000 ?
b10011010001011011110110000000000 %#
b11 A
b11 j"
b11 n"
b11 p"
b11 t"
b11 v"
b11 z"
b11 |"
1!#
b0 }"
b1 ~"
b1 {"
b10011001110000000000 g"
b10010001100100011010 B
b1 w"
b101 x"
r0.07528290152549744 ="
b10010001100100011010 C
b10010001100100011010 d"
b10101 u"
b11100 #
b11100 \
b1000100101000000000 f"
b1001100111100011010 e"
b10101 q"
b11011110 r"
b11100 =
b1010111011110 o"
b1111101 )"
b101111100110100001101 F
b101111100110100001101 H
b101111100110100001101 `"
b11000 ]"
b111110000010100 o
b1000101101100001101 n
b11100000001 Z
b100011111110 Y
b11100000001 X
b11100000001 V
b11100000001 U
b1001100101000000000 s
b1001100101000000000 c"
b1000100111100011010 r
b1000100111100011010 b"
b1010111011110 k"
b101001000000000 l"
b1111110 <
b10010 >
b11011 j
b11 i
1b
b11001111100011000000010000000000 Z"
b1100111110001100000001 l
b101111100110100001101 k
b101111100110100001101 ^"
b11000 g
b10 d
b11100000001011100000001000000000000011100000001100011111110011100000001 c
b11011 h
b11 f
b100 x
b1011 w
0p
b10010001010110111101101 }
b0 y
b100100 v
b1011 u
b1001100101000 |
b1000100111100011010 {
0!"
b11011 #"
b11010 ""
b10101110111100101001000000000 @
b10101110111100101001000000000 i"
b10101110111100101001 $"
b1001101000101101111011000000000 $#
b1001101000101101111011 +"
b111 ("
b10010 '"
r1 9"
r1 :"
r12.0765495300293 ;"
r0.07528290152549744 <"
r0.006237030029296875 7"
r12.0703125 2"
r1588 6"
r3610 1"
r0.0002527236938476562 5"
r0.06866455078125 0"
r5172 4"
r0.0004274845123291016 /"
1-
#11000
b1110 O
b110 S
1H"
b1 K"
b111 G"
b10101110110 A"
b101010001001 E"
b111111111111 I"
b10101110110 M"
b10101110110 Q"
b10101110110010101110110010101110110111111111111101010001001010101110110 T
b10101110110 U"
b111001001101100011110 8"
r2682 3"
r0.170654296875 ."
b11010 ]
b11011100110100111101 M
b11011100110100111101 Y"
b1100 ^
b1000111111000101110110 L
b1000111111000101110110 X"
b101001111010 R
b10100111101 `
b10101110110 _
b10101110110 >"
b10101110110 B"
b10101110110 F"
b10101110110 J"
b10101110110 N"
b10101110110 R"
1$
b111010 &
b111010 3
b11011100110100111101 0
b11011100110100111101 %
b11011100110100111101 4
b11011100110100111101 W"
1'
b1110010 P
b101100 )
b101100 1
b1000111111000101110110 /
b1000111111000101110110 (
b1000111111000101110110 2
b1000111111000101110110 V"
b11110100011011100110100111101 ,
b111011001000111111000101110110 *
0-
#12000
b1010111011110010100100 "
b1010111011110010100100 [
b10101110111100101001000000000000 ?
b10101110111100101001000000000000 %#
b10001111 G
b10001111 I
b10001111 a"
b10001111 J
b10001111 _"
b10 x"
b1110000011111000000000 g"
b1000110110000000001101 B
r5732680 ="
b10010 u"
b1000110110000000001101 C
b1000110110000000001101 d"
b100011111100010111 K
b100011111100010111 ["
b110110 #
b110110 \
b10010 q"
b110010 r"
b1000000000100000000 f"
b111110101111100001101 e"
b110110 =
b1001000110010 o"
b11011100110100111101 F
19
b11010 <
b11011 >
b10111 )"
b11 -"
b11 '#
b1001000110010 k"
b11010000000000 l"
b111110000010100000000 s
b111110000010100000000 c"
b1000101101100001101 r
b1000101101100001101 b"
b110001010101110 o
b111110111110001110 n
1D
b10101110110 Z
b101010001001 Y
b111111111111 X
b10101110110 W
b10101110110 V
b10101110110 U
b11011100110100111101 H
b11011100110100111101 `"
b1110 ]"
0&"
b11011 ("
b11010 '"
b11 *"
b10101110111100101001000000000 $#
b10101110111100101001 +"
b100 #"
b1011 ""
b10010001100100011010000000000 @
b10010001100100011010000000000 i"
b10010001100100011010 $"
b111110000010100 |
b1000101101100001101 {
b11011 v
b11 u
1p
b101111100110100001101 }
b11011 x
b11 w
b110 d
b10101110110010101110110010101110110111111111111101010001001010101110110 c
b111010 h
b101100 f
b10001111110001011101100000000000 Z"
b1000111111000101110110 l
b11011100110100111101 k
b11011100110100111101 ^"
b1110 g
b11010 j
b1100 i
r1 9"
r1 :"
r5198 ;"
r5732680 <"
r1588 7"
r3610 2"
r0.0002527236938476562 6"
r0.06866455078125 1"
r5172 5"
r0.0004274845123291016 0"
r2682 4"
r0.170654296875 /"
1-
#13000
0-
